{
    "name": "kirigami-addons",
    "config-opts": [
        "-DBUILD_TESTING=OFF",
        "-DCMAKE_BUILD_TYPE=Release",
        "-DBUILD_WITH_QT6=ON",
        "-DQT_MAJOR_VERSION=6"
    ],
    "buildsystem": "cmake-ninja",
    "sources": [
        {
            "type": "archive",
            "url": "https://download.kde.org/stable/kirigami-addons/kirigami-addons-1.2.0.tar.xz",
            "sha256": "8ff36458aa90ff1d980629357b6ddf5e88ab6bc917b011a7f9fa5d5e12acf51a",
            "x-checker-data": {
                "type": "anitya",
                "project-id": 242933,
                "stable-only": true,
                "url-template": "https://download.kde.org/stable/kirigami-addons/kirigami-addons-$version.tar.xz"
            }
        }
    ]
}
